{
    "KPlugin": {
        "Icon": "plasmavault",
        "MimeTypes": [
            "inode/directory"
        ],
        "Name": "Plasma Vault mount and unmount",
        "Name[ar]": "ضم و إزالة ضم خزنة بلازما",
        "Name[az]": "Plasma Seyfi qoşulması və ayırılması",
        "Name[bg]": "Монтиране у демонтиране на трезор на Plasma",
        "Name[ca@valencia]": "Muntatge i desmuntatge de la caixa forta de Plasma",
        "Name[ca]": "Muntatge i desmuntatge de la caixa forta del Plasma",
        "Name[cs]": "Připojení a odpojení Sejfu Plasma",
        "Name[da]": "Montering og afmontering af Plasma sikkerhedsboks",
        "Name[de]": "Ein- und Aushängen von Plasma Vaults",
        "Name[el]": "Θησαυροφυλάκιο Plasma προσάρτηση και αποπροσάρτηση",
        "Name[en_GB]": "Plasma Vault mount and unmount",
        "Name[es]": "Montar y desmontar caja fuerte de Plasma",
        "Name[et]": "Plasma Vaulti ühendamine ja lahutamine",
        "Name[eu]": "Plasma Kutxa-gotorra muntatu eta desmuntatu",
        "Name[fi]": "Plasma-holvin liittäminen ja irrotus",
        "Name[fr]": "Montage et libération Plasma « Vault »",
        "Name[gl]": "Montar e desmontar unha caixa forte de Plasma",
        "Name[hi]": "प्लाज़्मा वाल्ट माउन्ट व अनमाउन्ट",
        "Name[hu]": "Plasma Vault csatolása és leválasztása",
        "Name[ia]": "Plasma Vault monta e dismonta",
        "Name[id]": "Kait dan lepas kaitan Plasma Vault",
        "Name[it]": "Montaggio e smontaggio del caveau di Plasma",
        "Name[ka]": "Plasma -ის საცავის მიმაგრება და მოხსნა",
        "Name[ko]": "Plasma 비밀 공간 마운트 및 해제",
        "Name[lt]": "Plasma slėptuvių prijungimas ir atjungimas",
        "Name[nl]": "Aan- en afkoppelen van Plasma Vault (kluis)",
        "Name[nn]": "Montering og avmontering for Plasma-datakvelv",
        "Name[pa]": "ਪਲਾਜ਼ਮਾ ਵਾਲਟ ਮਾਊਂਟ ਤੇ ਅਣ-ਮਾਊਂਟ ਕਰੋ",
        "Name[pl]": "Podpięcie/Odpięcie sejfu Plazmy",
        "Name[pt]": "Montagem e desmontagem de Cofres do Plasma",
        "Name[pt_BR]": "Montagem e desmontagem de cofres do Plasma",
        "Name[ro]": "Montare și demontare Plasma Vault",
        "Name[ru]": "Подключение и отключение зашифрованных папок Plasma",
        "Name[sk]": "Pripojenie a odpojenie Plasma Vault",
        "Name[sl]": "Plasma Vault priklop in odklop",
        "Name[sv]": "Montering och avmontering av Plasma valv",
        "Name[tg]": "Васл ва ҷудо кардани ҷузвадонҳои рамзгузории Plasma",
        "Name[tr]": "Plasma Kasası bağlama ve ayırma",
        "Name[uk]": "Монтування і демонтування Сховища Плазми",
        "Name[x-test]": "xxPlasma Vault mount and unmountxx",
        "Name[zh_CN]": "Plasma Valut 挂载和卸载",
        "Name[zh_TW]": "Plasma 儲存庫掛載與取消掛載",
        "ServiceTypes": [
            "KFileItemAction/Plugin"
        ]
    },
    "MimeType": "application/octet-stream;"
}
